
<svg xmlns="http://www.w3.org/2000/svg" viewBox="0 0 16 16" width="16" height="16">


<title>bookmark</title>


<g class="nc-icon-wrapper" fill="#0c96c4">


<path fill="#0c96c4" d="M4,0C2.9,0,2,0.9,2,2v14l6-3l6,3V2c0-1.1-0.9-2-2-2H4z"></path></g></svg>