
<svg xmlns="http://www.w3.org/2000/svg" viewBox="0 0 32 32" width="32" height="32">


<title>bookmarks</title>


<g class="nc-icon-wrapper" stroke-linecap="square" stroke-linejoin="miter" stroke-width="2" fill="#0c96c4" stroke="#0c96c4">


<path d="M25,30,14,23,3,30V8A3,3,0,0,1,6,5H22a3,3,0,0,1,3,3Z" fill="none" stroke="#0c96c4" stroke-miterlimit="10"></path> 


<path d="M10,1H26a3,3,0,0,1,3,3V26" fill="none" stroke-miterlimit="10" data-color="color-2"></path></g></svg>