
<svg xmlns="http://www.w3.org/2000/svg" width="22.768" height="11.772" viewBox="0 0 22.768 11.772" stroke="#00b0d0" fill="#00b0d0">
  













<path id="Path_129" data-name="Path 129" d="M1344.473,3089.133l10.376-9.772,10.391,9.772" transform="translate(-1343.473 -3078.361)" fill="none" stroke="#C43C00" stroke-linecap="round" stroke-linejoin="round" stroke-width="2"></path>
</svg>