
<svg xmlns="http://www.w3.org/2000/svg" width="9.965" height="9.965" viewBox="0 0 9.965 9.965" stroke="#00b0d0" fill="#00b0d0">
  













<g id="Group_116" data-name="Group 116" transform="translate(-528.049 -171.848)" stroke="#00b0d0" fill="#00b0d0">
    













<path id="Path_12" data-name="Path 12" d="M0,0V13.092" transform="translate(528.402 172.201) rotate(-45)" fill="none" stroke="#fff" stroke-width="1"></path>
    













<path id="Path_13" data-name="Path 13" d="M0,0V13.092" transform="translate(537.659 172.201) rotate(45)" fill="none" stroke="#fff" stroke-width="1"></path>
  </g>
</svg>