<?xml version="1.0" encoding="utf-8"?>
<!-- Generator: Adobe Illustrator 24.0.1, SVG Export Plug-In . SVG Version: 6.00 Build 0)  -->



<svg version="1.1" id="Layer_1" xmlns="http://www.w3.org/2000/svg" xmlns:xlink="http://www.w3.org/1999/xlink" x="0px" y="0px" viewBox="0 0 50 50" style="enable-background:new 0 0 50 50;" xml:space="preserve">



<style type="text/css">
	.st0{fill:#FFFFFF;}
</style>



<g>
	


<path class="st0" d="M27.35,40.38c2.72,0.08,5.94-0.08,9-2.39c2.39-1.57,5.2-7.84,6.19-10.48c0.58-1.32,0.66-3.14,0-4.46
		c-1.73-4.13-4.38-8.67-6.11-10.48c-2.48-2.23-4.71-2.48-8.58-2.48h-0.5v6.03l4.62,8.17c0.49,0.99,0.33,1.4,0,2.06l-4.62,7.92
		C27.35,34.27,27.35,40.38,27.35,40.38z M26.52,40.38c0.25,0,0.5,0,0.83,0v-6.11l-0.91,1.49c-0.66,0.99-0.99,0.74-1.9,0.83l0,0l0,0
		h-2.23l0,0l0,0v-21.8c0-0.58,0.08-0.83,0.66-0.91h1.57c0.58,0,1.4-0.17,1.98,0.74l0.83,1.49v-6.03H11.41
		c-0.66,0-1.49,0.17-1.73,0.66l-1.16,2.23c-0.17,0.91,0.91,0.99,0.91,0.99h1.65c0.5,0,0.58,0.33,0.58,0.74v20.31
		c0,0.91-1.07,1.4-1.9,1.65c-0.33,0.08-0.91,0.17-1.16,0.58l-1.24,2.31c-0.17,0.5,0.25,0.83,0.58,0.83
		C14.47,40.38,20,40.38,26.52,40.38z"></path>
</g>
</svg>