
<svg xmlns="http://www.w3.org/2000/svg" width="12" height="12" viewBox="0 0 12 12" stroke="#00b0d0" fill="#00b0d0">
  













<g id="Ellipse_66" data-name="Ellipse 66" fill="#C43C00" stroke="#C43C00" stroke-width="1">
    













<circle cx="6" cy="6" r="6" stroke="none" fill="#00b0d0"></circle>
    













<circle cx="6" cy="6" r="5.5" fill="none" stroke="#00b0d0"></circle>
  </g>
</svg>