
<svg version="1.1" xmlns="http://www.w3.org/2000/svg" xmlns:xlink="http://www.w3.org/1999/xlink" x="0px" y="0px" viewBox="0 0 16 16" xml:space="preserve" width="16" height="16">


<title>marker</title>


<g class="nc-icon-wrapper" stroke-width="1" fill="#0c96c4" stroke="#0c96c4">


<polyline points="5.5 12.5 3.5 14.5 0.5 13.5 3.5 10.5" fill="none" stroke-linecap="round" stroke-linejoin="round" data-cap="butt" data-color="color-2"></polyline>
  


<rect x="4.55" y="2.964" width="9.899" height="7.071" transform="translate(-1.814 8.621) rotate(-45)" fill="none" stroke="#0c96c4" stroke-linecap="round" stroke-linejoin="round" data-cap="butt"></rect></g></svg>