
<svg xmlns="http://www.w3.org/2000/svg" viewBox="0 0 24 24" width="24" height="24">


<title>arrow up</title>


<g class="nc-icon-wrapper" stroke-linecap="square" stroke-linejoin="miter" stroke-width="2" fill="#ffffff" stroke="#ffffff">


<line data-cap="butt" data-color="color-2" fill="none" stroke-miterlimit="10" x1="12" y1="22" x2="12" y2="2" stroke-linecap="butt"></line> 


<polyline fill="none" stroke="#ffffff" stroke-miterlimit="10" points="5,9 12,2 19,9 "></polyline></g></svg>