
<svg version="1.1" xmlns="http://www.w3.org/2000/svg" xmlns:xlink="http://www.w3.org/1999/xlink" x="0px" y="0px" viewBox="0 0 24 24" xml:space="preserve" width="24" height="24">


<title>pinch</title>


<g class="nc-icon-wrapper" stroke-linecap="square" stroke-linejoin="miter" stroke-width="2" fill="#ffffff" stroke="#ffffff">


<line data-cap="butt" data-color="color-2" fill="none" stroke-miterlimit="10" x1="14" y1="10" x2="22" y2="2" stroke-linecap="butt"></line> 


<polyline data-color="color-2" fill="none" stroke-miterlimit="10" points=" 21,10 14,10 14,3 "></polyline> 


<line data-cap="butt" fill="none" stroke="#ffffff" stroke-miterlimit="10" x1="10" y1="14" x2="2" y2="22" stroke-linecap="butt"></line> 


<polyline fill="none" stroke="#ffffff" stroke-miterlimit="10" points="10,21 10,14 3,14 "></polyline></g></svg>